…
    ## Parsed with column specification:
    ## cols(
    ##   .default = col_double()
    ## )

    ## See spec(...) for full column specifications.

``` r
print(birthweight_data)
```

    ## # A tibble: 4,342 x 20
    ##    babysex bhead blength   bwt delwt fincome frace gaweeks malform menarche
    ##      <dbl> <dbl>   <dbl> <dbl> <dbl>   <dbl> <dbl>   <dbl>   <dbl>    <dbl>
    ##  1       2    34      51  3629   177      35     1    39.9       0       13
    ##  2       1    34      48  3062   156      65     2    25.9       0       14
    ##  3       2    36      50  3345   148      85     1    39.9       0       12
    ##  4       1    34      52  3062   157      55     1    40         0       14
    ##  5       2    34      52  3374   156       5     1    41.6       0       13
    ##  6       1    33      52  3374   129      55     1    40.7       0       12
    ##  7       2    33      46  2523   126      96     2    40.3       0       14
    ##  8       2    33      49  2778   140       5     1    37.4       0       12
    ##  9       1    36      52  3515   146      85     1    40.3       0       11
    ## 10       1    33      50  3459   169      75     2    40.7       0       12
    ## # … with 4,332 more rows, and 10 more variables: mheight <dbl>,
    ## #   momage <dbl>, mrace <dbl>, parity <dbl>, pnumlbw <dbl>, pnumsga <dbl>,
    ## #   ppbmi <dbl>, ppwt <dbl>, smoken <dbl>, wtgain <dbl>
…
# work on log(beta0 * beta1) #
boot_strap_df = boot_straps %>% mutate(models = map(strap, ~lm(tmax ~ tmin, data = .x)), results = map(models, broom::tidy)) %>%
  select(-strap, -models) %>%
  unnest(results) %>%
  group_by(.id) %>%
  mutate(min_est = ifelse(term == 'tmin', estimate, 0), int_est = ifelse(term == '(Intercept)', estimate, 0)) 
  
log_param = boot_strap_df %>%
  group_by(.id) %>%
  summarize(min_est = sum(min_est), int_est = sum(int_est)) %>%
  mutate(log_min_max = log(min_est*int_est)) %>%
  print()
```

    ## # A tibble: 5,000 x 4
    ##    .id   min_est int_est log_min_max
    ##    <chr>   <dbl>   <dbl>       <dbl>
    ##  1 0001     1.02    7.48        2.03
    ##  2 0002     1.03    7.24        2.01
    ##  3 0003     1.04    7.14        2.00
    ##  4 0004     1.05    7.21        2.03
    ##  5 0005     1.05    7.16        2.02
    ##  6 0006     1.04    7.08        2.00
    ##  7 0007     1.06    6.89        1.99
    ##  8 0008     1.05    7.20        2.02
    ##  9 0009     1.04    7.22        2.02
    ## 10 0010     1.06    6.90        1.99
    ## # … with 4,990 more rows
…
